[WILDCARD]error: Uncaught NotFound: Cannot resolve module "[WILDCARD]/non-existent"
[WILDCARD] js/dispatch_json.ts:[WILDCARD]
    at DenoError (js/errors.ts:[WILDCARD])
    at unwrapResponse (js/dispatch_json.ts:[WILDCARD])
    at sendSync[WILDCARD] (js/dispatch_json.ts:[WILDCARD])
    at fetchSourceFile (js/compiler.ts:[WILDCARD])
    at _resolveModule (js/compiler.ts:[WILDCARD])
    at js/compiler.ts:[WILDCARD]
    at resolveModuleNamesWorker ([WILDCARD])
    at resolveModuleNamesReusingOldState ([WILDCARD]typescript.js:[WILDCARD])
    at processImportedModules ([WILDCARD]typescript.js:[WILDCARD])
